<?xml version="1.0" encoding="utf-8"?>
<!-- Generator: Adobe Illustrator 18.1.1, SVG Export Plug-In . SVG Version: 6.00 Build 0)  -->
<svg version="1.1" baseProfile="basic" id="Layer_1"
	 xmlns="http://www.w3.org/2000/svg" xmlns:xlink="http://www.w3.org/1999/xlink" x="0px" y="0px" viewBox="0 0 20.8 20.8"
	 xml:space="preserve">
<g>
	<circle fill="none" stroke="#AFAFAF" stroke-miterlimit="10" cx="10.4" cy="10.4" r="9.9"/>
	<g>
		<line fill="none" stroke="#AFAFAF" stroke-miterlimit="10" x1="6.8" y1="6.8" x2="13.9" y2="13.9"/>
		<line fill="none" stroke="#AFAFAF" stroke-miterlimit="10" x1="13.9" y1="6.8" x2="6.8" y2="13.9"/>
	</g>
</g>
</svg>
