<?xml version="1.0" encoding="utf-8"?>
<!-- Generator: Adobe Illustrator 18.1.1, SVG Export Plug-In . SVG Version: 6.00 Build 0)  -->
<svg version="1.1" id="Layer_1" xmlns="http://www.w3.org/2000/svg" xmlns:xlink="http://www.w3.org/1999/xlink" x="0px" y="0px"
	 viewBox="0 0 9.7 9.7" enable-background="new 0 0 9.7 9.7" xml:space="preserve">
<g>
	<line fill="none" stroke="#AFAFAF" stroke-miterlimit="10" x1="9.3" y1="0.4" x2="0.4" y2="9.3"/>
	<line fill="none" stroke="#AFAFAF" stroke-miterlimit="10" x1="0.4" y1="0.4" x2="9.3" y2="9.3"/>
</g>
</svg>
